
	2016-02-10 10:50:04!#logsep#!1!#logsep#!"wpshop_attributes"!#logsep#!78!#logsep#!"Add the attribute : last_name with value : Défaut"!#logsep#!0!#logsep#!wpshop_attributes
	2016-02-10 10:50:04!#logsep#!1!#logsep#!"wpshop_attributes"!#logsep#!78!#logsep#!"Add the attribute : first_name with value : Client"!#logsep#!0!#logsep#!wpshop_attributes
	2016-02-10 10:50:04!#logsep#!1!#logsep#!"wpshop_attributes"!#logsep#!78!#logsep#!"Add the attribute : user_email with value : client_defaut@wpshop.fr"!#logsep#!0!#logsep#!wpshop_attributes
	2016-02-10 10:50:04!#logsep#!1!#logsep#!"wpshop_attributes"!#logsep#!78!#logsep#!"Add the attribute : address_last_name with value : Défaut"!#logsep#!0!#logsep#!wpshop_attributes
	2016-02-10 10:50:04!#logsep#!1!#logsep#!"wpshop_attributes"!#logsep#!78!#logsep#!"Add the attribute : address_first_name with value : Client"!#logsep#!0!#logsep#!wpshop_attributes
	2016-02-10 10:50:04!#logsep#!1!#logsep#!"wpshop_attributes"!#logsep#!78!#logsep#!"Add the attribute : address_user_email with value : client_defaut@wpshop.fr"!#logsep#!0!#logsep#!wpshop_attributes
	2016-02-10 10:50:04!#logsep#!1!#logsep#!"wpshop_attributes"!#logsep#!78!#logsep#!"Add the attribute : address with value : Default address"!#logsep#!0!#logsep#!wpshop_attributes
	2016-02-10 10:50:04!#logsep#!1!#logsep#!"wpshop_attributes"!#logsep#!78!#logsep#!"Add the attribute : postcode with value : 42420"!#logsep#!0!#logsep#!wpshop_attributes
	2016-02-10 10:50:04!#logsep#!1!#logsep#!"wpshop_attributes"!#logsep#!78!#logsep#!"Add the attribute : city with value : Default city"!#logsep#!0!#logsep#!wpshop_attributes
	2016-02-10 10:50:04!#logsep#!1!#logsep#!"wpshop_attributes"!#logsep#!78!#logsep#!"Add the attribute : phone with value : 0000000042"!#logsep#!0!#logsep#!wpshop_attributes
	2016-02-10 10:58:44!#logsep#!1!#logsep#!"wpshop_attributes"!#logsep#!79!#logsep#!"Add the attribute : product_attribute_set_id with value : 1"!#logsep#!0!#logsep#!wpshop_attributes
	2016-02-10 10:58:44!#logsep#!1!#logsep#!"wpshop_attributes"!#logsep#!79!#logsep#!"Add the attribute : tx_tva with value : 17"!#logsep#!0!#logsep#!wpshop_attributes
	2016-02-10 10:58:44!#logsep#!1!#logsep#!"wpshop_attributes"!#logsep#!79!#logsep#!"Add the attribute : manage_stock with value : 9"!#logsep#!0!#logsep#!wpshop_attributes
	2016-02-10 10:58:44!#logsep#!1!#logsep#!"wpshop_attributes"!#logsep#!79!#logsep#!"Add the attribute : barcode with value : 0440216000799"!#logsep#!0!#logsep#!wpshop_attributes
	2016-02-10 10:58:44!#logsep#!1!#logsep#!"wpshop_attributes"!#logsep#!79!#logsep#!"Add the attribute : product_reference with value : PDCT0000081"!#logsep#!0!#logsep#!wpshop_attributes
	2016-02-10 10:58:44!#logsep#!1!#logsep#!"wpshop_attributes"!#logsep#!79!#logsep#!"Add the attribute : product_price with value : 10"!#logsep#!0!#logsep#!wpshop_attributes
	2016-02-10 10:58:44!#logsep#!1!#logsep#!"wpshop_attributes"!#logsep#!79!#logsep#!"Add the attribute : product_stock with value : 15"!#logsep#!0!#logsep#!wpshop_attributes
	2016-02-10 10:58:44!#logsep#!1!#logsep#!"wpshop_attributes"!#logsep#!79!#logsep#!"Add the attribute : product_weight with value : 2"!#logsep#!0!#logsep#!wpshop_attributes
	2016-02-10 10:58:44!#logsep#!1!#logsep#!"wpshop_attributes"!#logsep#!79!#logsep#!"Add the attribute : product_height with value : "!#logsep#!0!#logsep#!wpshop_attributes
	2016-02-10 10:58:44!#logsep#!1!#logsep#!"wpshop_attributes"!#logsep#!79!#logsep#!"Add the attribute : product_width with value : "!#logsep#!0!#logsep#!wpshop_attributes
	2016-02-10 10:58:44!#logsep#!1!#logsep#!"wpshop_attributes"!#logsep#!79!#logsep#!"Add the attribute : cost_of_postage with value : "!#logsep#!0!#logsep#!wpshop_attributes
	2016-02-10 10:58:44!#logsep#!1!#logsep#!"wpshop_attributes"!#logsep#!79!#logsep#!"Add the attribute : price_ht with value : 8.33333"!#logsep#!0!#logsep#!wpshop_attributes
	2016-02-10 10:58:44!#logsep#!1!#logsep#!"wpshop_attributes"!#logsep#!79!#logsep#!"Add the attribute : tva with value : 1.66667"!#logsep#!0!#logsep#!wpshop_attributes
	2016-02-10 10:58:44!#logsep#!1!#logsep#!"wpshop_attributes"!#logsep#!79!#logsep#!"Add the attribute : product_price with value : 10.00000"!#logsep#!0!#logsep#!wpshop_attributes
	2016-02-10 10:58:44!#logsep#!1!#logsep#!"wpshop_attributes"!#logsep#!79!#logsep#!"Add the attribute : price_ht with value : 8.3333333333333"!#logsep#!0!#logsep#!wpshop_attributes
	2016-02-10 10:58:44!#logsep#!1!#logsep#!"wpshop_attributes"!#logsep#!79!#logsep#!"Add the attribute : tva with value : 1.6666666666667"!#logsep#!0!#logsep#!wpshop_attributes
	2016-02-10 10:58:44!#logsep#!1!#logsep#!"wpshop_attributes"!#logsep#!79!#logsep#!"Add the attribute : product_attribute_set_id with value : 1"!#logsep#!0!#logsep#!wpshop_attributes
	2016-02-10 10:58:44!#logsep#!1!#logsep#!"wpshop_attributes"!#logsep#!79!#logsep#!"Add the attribute : tx_tva with value : 17"!#logsep#!0!#logsep#!wpshop_attributes
	2016-02-10 10:58:44!#logsep#!1!#logsep#!"wpshop_attributes"!#logsep#!79!#logsep#!"Add the attribute : manage_stock with value : 9"!#logsep#!0!#logsep#!wpshop_attributes
	2016-02-10 10:58:44!#logsep#!1!#logsep#!"wpshop_attributes"!#logsep#!79!#logsep#!"Add the attribute : barcode with value : 0440216000799"!#logsep#!0!#logsep#!wpshop_attributes
	2016-02-10 10:58:44!#logsep#!1!#logsep#!"wpshop_attributes"!#logsep#!79!#logsep#!"Add the attribute : product_reference with value : PDCT0000081"!#logsep#!0!#logsep#!wpshop_attributes
	2016-02-10 10:58:44!#logsep#!1!#logsep#!"wpshop_attributes"!#logsep#!79!#logsep#!"Add the attribute : product_price with value : 10"!#logsep#!0!#logsep#!wpshop_attributes
	2016-02-10 10:58:44!#logsep#!1!#logsep#!"wpshop_attributes"!#logsep#!79!#logsep#!"Add the attribute : product_stock with value : 15"!#logsep#!0!#logsep#!wpshop_attributes
	2016-02-10 10:58:44!#logsep#!1!#logsep#!"wpshop_attributes"!#logsep#!79!#logsep#!"Add the attribute : product_weight with value : 2"!#logsep#!0!#logsep#!wpshop_attributes
	2016-02-10 10:58:44!#logsep#!1!#logsep#!"wpshop_attributes"!#logsep#!79!#logsep#!"Add the attribute : product_height with value : "!#logsep#!0!#logsep#!wpshop_attributes
	2016-02-10 10:58:44!#logsep#!1!#logsep#!"wpshop_attributes"!#logsep#!79!#logsep#!"Add the attribute : product_width with value : "!#logsep#!0!#logsep#!wpshop_attributes
	2016-02-10 10:58:44!#logsep#!1!#logsep#!"wpshop_attributes"!#logsep#!79!#logsep#!"Add the attribute : cost_of_postage with value : "!#logsep#!0!#logsep#!wpshop_attributes
	2016-02-10 10:58:44!#logsep#!1!#logsep#!"wpshop_attributes"!#logsep#!79!#logsep#!"Add the attribute : price_ht with value : 8.33333"!#logsep#!0!#logsep#!wpshop_attributes
	2016-02-10 10:58:44!#logsep#!1!#logsep#!"wpshop_attributes"!#logsep#!79!#logsep#!"Add the attribute : tva with value : 1.66667"!#logsep#!0!#logsep#!wpshop_attributes
	2016-02-10 10:58:44!#logsep#!1!#logsep#!"wpshop_attributes"!#logsep#!79!#logsep#!"Add the attribute : product_price with value : 10.00000"!#logsep#!0!#logsep#!wpshop_attributes
	2016-02-10 10:58:44!#logsep#!1!#logsep#!"wpshop_attributes"!#logsep#!79!#logsep#!"Add the attribute : price_ht with value : 8.3333333333333"!#logsep#!0!#logsep#!wpshop_attributes
	2016-02-10 10:58:44!#logsep#!1!#logsep#!"wpshop_attributes"!#logsep#!79!#logsep#!"Add the attribute : tva with value : 1.6666666666667"!#logsep#!0!#logsep#!wpshop_attributes
	2016-02-10 11:31:57!#logsep#!1!#logsep#!"wpshop_attributes"!#logsep#!79!#logsep#!"Add the attribute : product_attribute_set_id with value : 1"!#logsep#!0!#logsep#!wpshop_attributes
	2016-02-10 11:31:57!#logsep#!1!#logsep#!"wpshop_attributes"!#logsep#!79!#logsep#!"Add the attribute : tx_tva with value : 17"!#logsep#!0!#logsep#!wpshop_attributes
	2016-02-10 11:31:57!#logsep#!1!#logsep#!"wpshop_attributes"!#logsep#!79!#logsep#!"Add the attribute : manage_stock with value : 9"!#logsep#!0!#logsep#!wpshop_attributes