
	2016-02-10 11:31:57!#logsep#!1!#logsep#!"wpshop_attributes"!#logsep#!79!#logsep#!"Add the attribute : barcode with value : 0440216000799"!#logsep#!0!#logsep#!wpshop_attributes
	2016-02-10 11:31:57!#logsep#!1!#logsep#!"wpshop_attributes"!#logsep#!79!#logsep#!"Add the attribute : product_reference with value : PDCT0000081"!#logsep#!0!#logsep#!wpshop_attributes
	2016-02-10 11:31:57!#logsep#!1!#logsep#!"wpshop_attributes"!#logsep#!79!#logsep#!"Add the attribute : product_price with value : 10.00000"!#logsep#!0!#logsep#!wpshop_attributes
	2016-02-10 11:31:57!#logsep#!1!#logsep#!"wpshop_attributes"!#logsep#!79!#logsep#!"Add the attribute : product_stock with value : 15.00000"!#logsep#!0!#logsep#!wpshop_attributes
	2016-02-10 11:31:57!#logsep#!1!#logsep#!"wpshop_attributes"!#logsep#!79!#logsep#!"Add the attribute : product_weight with value : 2.00000"!#logsep#!0!#logsep#!wpshop_attributes
	2016-02-10 11:31:57!#logsep#!1!#logsep#!"wpshop_attributes"!#logsep#!79!#logsep#!"Add the attribute : product_height with value : 0.00000"!#logsep#!0!#logsep#!wpshop_attributes
	2016-02-10 11:31:57!#logsep#!1!#logsep#!"wpshop_attributes"!#logsep#!79!#logsep#!"Add the attribute : product_width with value : 0.00000"!#logsep#!0!#logsep#!wpshop_attributes
	2016-02-10 11:31:57!#logsep#!1!#logsep#!"wpshop_attributes"!#logsep#!79!#logsep#!"Add the attribute : cost_of_postage with value : 0.00000"!#logsep#!0!#logsep#!wpshop_attributes
	2016-02-10 11:31:57!#logsep#!1!#logsep#!"wpshop_attributes"!#logsep#!79!#logsep#!"Add the attribute : price_ht with value : 8.33333"!#logsep#!0!#logsep#!wpshop_attributes
	2016-02-10 11:31:57!#logsep#!1!#logsep#!"wpshop_attributes"!#logsep#!79!#logsep#!"Add the attribute : tva with value : 1.66667"!#logsep#!0!#logsep#!wpshop_attributes
	2016-02-10 11:31:57!#logsep#!1!#logsep#!"wpshop_attributes"!#logsep#!79!#logsep#!"Add the attribute : product_price with value : 10.00000"!#logsep#!0!#logsep#!wpshop_attributes
	2016-02-10 11:31:57!#logsep#!1!#logsep#!"wpshop_attributes"!#logsep#!79!#logsep#!"Add the attribute : price_ht with value : 8.3333333333333"!#logsep#!0!#logsep#!wpshop_attributes
	2016-02-10 11:31:57!#logsep#!1!#logsep#!"wpshop_attributes"!#logsep#!79!#logsep#!"Add the attribute : tva with value : 1.6666666666667"!#logsep#!0!#logsep#!wpshop_attributes
	2016-02-10 11:31:57!#logsep#!1!#logsep#!"wpshop_attributes"!#logsep#!79!#logsep#!"Add the attribute : product_attribute_set_id with value : 1"!#logsep#!0!#logsep#!wpshop_attributes
	2016-02-10 11:31:57!#logsep#!1!#logsep#!"wpshop_attributes"!#logsep#!79!#logsep#!"Add the attribute : tx_tva with value : 17"!#logsep#!0!#logsep#!wpshop_attributes
	2016-02-10 11:31:57!#logsep#!1!#logsep#!"wpshop_attributes"!#logsep#!79!#logsep#!"Add the attribute : manage_stock with value : 9"!#logsep#!0!#logsep#!wpshop_attributes
	2016-02-10 11:31:57!#logsep#!1!#logsep#!"wpshop_attributes"!#logsep#!79!#logsep#!"Add the attribute : barcode with value : 0440216000799"!#logsep#!0!#logsep#!wpshop_attributes
	2016-02-10 11:31:57!#logsep#!1!#logsep#!"wpshop_attributes"!#logsep#!79!#logsep#!"Add the attribute : product_reference with value : PDCT0000081"!#logsep#!0!#logsep#!wpshop_attributes
	2016-02-10 11:31:57!#logsep#!1!#logsep#!"wpshop_attributes"!#logsep#!79!#logsep#!"Add the attribute : product_price with value : 10.00000"!#logsep#!0!#logsep#!wpshop_attributes
	2016-02-10 11:31:57!#logsep#!1!#logsep#!"wpshop_attributes"!#logsep#!79!#logsep#!"Add the attribute : product_stock with value : 15.00000"!#logsep#!0!#logsep#!wpshop_attributes
	2016-02-10 11:31:57!#logsep#!1!#logsep#!"wpshop_attributes"!#logsep#!79!#logsep#!"Add the attribute : product_weight with value : 2.00000"!#logsep#!0!#logsep#!wpshop_attributes
	2016-02-10 11:31:57!#logsep#!1!#logsep#!"wpshop_attributes"!#logsep#!79!#logsep#!"Add the attribute : product_height with value : 0.00000"!#logsep#!0!#logsep#!wpshop_attributes
	2016-02-10 11:31:57!#logsep#!1!#logsep#!"wpshop_attributes"!#logsep#!79!#logsep#!"Add the attribute : product_width with value : 0.00000"!#logsep#!0!#logsep#!wpshop_attributes
	2016-02-10 11:31:57!#logsep#!1!#logsep#!"wpshop_attributes"!#logsep#!79!#logsep#!"Add the attribute : cost_of_postage with value : 0.00000"!#logsep#!0!#logsep#!wpshop_attributes
	2016-02-10 11:31:57!#logsep#!1!#logsep#!"wpshop_attributes"!#logsep#!79!#logsep#!"Add the attribute : price_ht with value : 8.33333"!#logsep#!0!#logsep#!wpshop_attributes
	2016-02-10 11:31:57!#logsep#!1!#logsep#!"wpshop_attributes"!#logsep#!79!#logsep#!"Add the attribute : tva with value : 1.66667"!#logsep#!0!#logsep#!wpshop_attributes
	2016-02-10 11:31:57!#logsep#!1!#logsep#!"wpshop_attributes"!#logsep#!79!#logsep#!"Add the attribute : product_price with value : 10.00000"!#logsep#!0!#logsep#!wpshop_attributes
	2016-02-10 11:31:57!#logsep#!1!#logsep#!"wpshop_attributes"!#logsep#!79!#logsep#!"Add the attribute : price_ht with value : 8.3333333333333"!#logsep#!0!#logsep#!wpshop_attributes
	2016-02-10 11:31:57!#logsep#!1!#logsep#!"wpshop_attributes"!#logsep#!79!#logsep#!"Add the attribute : tva with value : 1.6666666666667"!#logsep#!0!#logsep#!wpshop_attributes
	2016-02-10 11:34:10!#logsep#!1!#logsep#!"wpshop_attributes"!#logsep#!79!#logsep#!"Add the attribute : product_attribute_set_id with value : 1"!#logsep#!0!#logsep#!wpshop_attributes
	2016-02-10 11:34:10!#logsep#!1!#logsep#!"wpshop_attributes"!#logsep#!79!#logsep#!"Add the attribute : tx_tva with value : 17"!#logsep#!0!#logsep#!wpshop_attributes
	2016-02-10 11:34:10!#logsep#!1!#logsep#!"wpshop_attributes"!#logsep#!79!#logsep#!"Add the attribute : manage_stock with value : 9"!#logsep#!0!#logsep#!wpshop_attributes
	2016-02-10 11:34:10!#logsep#!1!#logsep#!"wpshop_attributes"!#logsep#!79!#logsep#!"Add the attribute : barcode with value : 0440216000799"!#logsep#!0!#logsep#!wpshop_attributes
	2016-02-10 11:34:10!#logsep#!1!#logsep#!"wpshop_attributes"!#logsep#!79!#logsep#!"Add the attribute : product_reference with value : PDCT0000081"!#logsep#!0!#logsep#!wpshop_attributes
	2016-02-10 11:34:10!#logsep#!1!#logsep#!"wpshop_attributes"!#logsep#!79!#logsep#!"Add the attribute : product_price with value : 10.00000"!#logsep#!0!#logsep#!wpshop_attributes
	2016-02-10 11:34:10!#logsep#!1!#logsep#!"wpshop_attributes"!#logsep#!79!#logsep#!"Add the attribute : product_stock with value : 15.00000"!#logsep#!0!#logsep#!wpshop_attributes
	2016-02-10 11:34:10!#logsep#!1!#logsep#!"wpshop_attributes"!#logsep#!79!#logsep#!"Add the attribute : product_weight with value : 2.00000"!#logsep#!0!#logsep#!wpshop_attributes
	2016-02-10 11:34:10!#logsep#!1!#logsep#!"wpshop_attributes"!#logsep#!79!#logsep#!"Add the attribute : product_height with value : 0.00000"!#logsep#!0!#logsep#!wpshop_attributes
	2016-02-10 11:34:10!#logsep#!1!#logsep#!"wpshop_attributes"!#logsep#!79!#logsep#!"Add the attribute : product_width with value : 0.00000"!#logsep#!0!#logsep#!wpshop_attributes
	2016-02-10 11:34:10!#logsep#!1!#logsep#!"wpshop_attributes"!#logsep#!79!#logsep#!"Add the attribute : cost_of_postage with value : 0.00000"!#logsep#!0!#logsep#!wpshop_attributes
	2016-02-10 11:34:11!#logsep#!1!#logsep#!"wpshop_attributes"!#logsep#!79!#logsep#!"Add the attribute : price_ht with value : 8.33333"!#logsep#!0!#logsep#!wpshop_attributes
	2016-02-10 11:34:11!#logsep#!1!#logsep#!"wpshop_attributes"!#logsep#!79!#logsep#!"Add the attribute : tva with value : 1.66667"!#logsep#!0!#logsep#!wpshop_attributes
	2016-02-10 11:34:11!#logsep#!1!#logsep#!"wpshop_attributes"!#logsep#!79!#logsep#!"Add the attribute : product_price with value : 10.00000"!#logsep#!0!#logsep#!wpshop_attributes
	2016-02-10 11:34:11!#logsep#!1!#logsep#!"wpshop_attributes"!#logsep#!79!#logsep#!"Add the attribute : price_ht with value : 8.3333333333333"!#logsep#!0!#logsep#!wpshop_attributes
	2016-02-10 11:34:11!#logsep#!1!#logsep#!"wpshop_attributes"!#logsep#!79!#logsep#!"Add the attribute : tva with value : 1.6666666666667"!#logsep#!0!#logsep#!wpshop_attributes